{
	"name": "September",
	"abbreviation": "September",
	"talks": [{
			"presenter": {
				"name": ""
			},
			"presentation": {
				"title": "SecDSM 101 - September 2018",
				"links": [{
					"url": "https://www.youtube.com/watch?v=Um1YcA1eeoc",
					"type": "youtube"
				}]
			}
		},
		{
			"presenter": {
				"name": "Craig Leabhart"
			},
			"presentation": {
				"title": "Amateur Malware Analysis",
				"description": "Are you interested in reversing but don't know where to start? Think reversing is beyond your means? This talk will try to make the topic of reversing more accessible and will focus on amateur malware analysis, including setting up your environment, free tools, and some demos.",
				"links": [{
					"url": "https://www.youtube.com/watch?v=u_-pOxNscME",
					"type": "youtube"
				},
				{
					"url": "./2018/09/CraigLeabhart_AmateurMalwareAnalysis.pdf",
					"type": "file-pdf-o"
				}]
			}
		},
		{
			"presenter": {
				"name": "Benjamin Holland"
			},
			"presentation": {
				"title": "Recent Trends in Program Analysis for Bug Hunting and Exploitation",
				"description": "Software is pervasive, and for better or worse, it now controls most of daily lives. Developing and maintaining secure software is of the upmost importance, but it seems that despite our best efforts we just haven’t gotten it right yet. More importantly we should ask ourselves why haven’t we solved this problem yet? This talk summarizes classical program analysis as well as recent program analysis techniques without all the fancy jargon. As case studies, we examine a few of DARPA’s high-profile software security programs and read between the lines to see where the field is going. Is your job in computer security going to be replaced by machines armed with theorem provers or will humans always have a role to play? Come join in the discussion.",
				"links": [{
					"url": "https://www.youtube.com/watch?v=bL0oJsinqP0",
					"type": "youtube"
				},
				{
					"url": "./2018/09/BenHolland_RecentTrendsPA.pdf",
					"type": "file-pdf-o"
				}]
			}
		}
	]
}