{
  "name": "March",
  "abbreviation": "Mar",
    "talks": [
      {
        "presenter": {
          "name": ""
        },
        "presentation": {
          "title": "SecDSM 101 - March 2018",
          "links": [
            {
              "url": "https://www.youtube.com/watch?v=bo5vRpCE2oY",
              "type": "youtube"
          }
          ]
        }
    },
      {
        "presenter": {
          "name": "Kris Mortensen"
        },
        "presentation": {
          "title": "Certificate Services (Windows PKI) - March 2018",
          "links": [
            {
              "url": "https://www.youtube.com/watch?v=H0Kn4VGjvOI&t",
              "type": "youtube"
          }
          ]
        }
    }
    ]
}