{
  "name": "Febrary",
  "abbreviation": "Feb",
    "talks": [
      {
        "presenter": {
          "name": ""
        },
        "presentation": {
          "title": "SecDSM 101 - February 2018",
          "links": [
            {
              "url": "https://www.youtube.com/watch?v=OOXdn_WWMjo&t=5s",
              "type": "youtube"
          }
          ]
        }
    },
      {
        "presenter": {
          "name": "Jared Brees"
        },
        "presentation": {
          "title": "Cheap Passive Ethernet Taps - February 2018",
          "links": [
            {
              "url": "https://www.youtube.com/watch?v=TeVw1J0dVFM&t=603s",
              "type": "youtube"
          }
          ]
        }
    },
    {
        "presenter": {
          "name": "Eric Johnson"
        },
        "presentation": {
          "title": "Continuous Security: Monitoring & Active Defense in the Cloud - February 2018",
          "links": [
            {
              "url": "https://www.youtube.com/watch?v=eDyqI4VuEZ4&t=3s",
              "type": "youtube"
          }
          ]
        }
    }
    ]
}