{
  "name": "June",
  "abbreviation": "Jun",
  "talks": [
    {
      "presenter": {
        "name": "Kelcee Patrick-Ferree"
      },
      "presentation": {
        "title": "SDR 101",
        "links": [
          {
            "url": "https://youtu.be/Fnc6isAycBw",
            "type": "youtube"
          }
        ]
      }
    },
    {
      "presenter": {
        "name": "Kelcee Patrick-Ferree"
      },
      "presentation": {
        "title": "Data Breaches"
      }
    },
    {
      "presenter": {
        "name": "tompohl, t0w3ntum, and zoomequipd"
      },
      "presentation": {
        "title": "CircleCityCon CTF",
        "links": [
          {
            "url": "https://youtu.be/hte4zD5z2CU",
            "type": "youtube"
          }
        ]
      }
    }
  ]
}