{
  "name": "October",
  "abbreviation": "Oct",
  "talks": [
    {
      "presenter": {
        "name": "Nicholas Starke"
      },
      "presentation": {
        "title": "A Brief Introduction to Static Reverse Engineering Android Apps"
      }
    },
    {
      "presenter": {
        "name": "Jason Williams"
      },
      "presentation": {
        "title": "There is a lot more under the surface than Phishing 101 and best practices would have you believe. Let's talk about phishing backends, obfuscations, encryptions, web sockets, and get in it. This is not a 101 talk, you know what phishing is. We're going to dive in and look at examples of how things work and look at some Emerging Threats IDS rules that can show how we can better detect these jerks"
      }
    }     
  ]
}